Interim Data Analysis : Associations with Adult Orbital Cellulitis
…
## [1] "dh"   "ohsu" "uch"

Number of patients

cat("Number of patients:",
  length(unique(oc_cleaned$record_id)),"\n\n")

## Number of patients: 330

Missing values

oc_cleaned %>% ungroup() %>% miss_var_summary()

## # A tibble: 120 × 3
##    variable                          n_miss pct_miss
##    <chr>                              <int>    <num>
##  1 anticoagulation_initiated?           324     98.2
##  2 type_of_anticoagulation_initiated    324     98.2
##  3 type_of_intracranial_extension       315     95.5
##  4 new_findings_on_repeat_imaging       303     91.8
##  5 date_of_prior_surgery                298     90.3
##  6 drsx                                 298     90.3
##  7 type_of_prior_surgery                297     90  
##  8 other_on_imaging_-_explanation       294     89.1
##  9 post_va_(20/***)                     292     88.5
## 10 date_of_trauma                       286     86.7
## # ℹ 110 more rows
…
High NLR:
* Acute stress or infection
* Chronic inflammation
* Poor prognosis in some diseases

Low NLR:
* Lower inflammation
* Stronger relative adaptive immunity (context-dependent)

Get group counts

count_grp_obs(oc_cleaned, vars = priori[priori != "age"], 
              mode = "separate")

## # A tibble: 26 × 4
##    variable         category     n   pct
##    <chr>            <chr>    <int> <dbl>
##  1 asthma           No         311 0.942
##  2 asthma           Yes         19 0.058
##  3 dental_infection No         308 0.933
##  4 dental_infection Yes         22 0.067
##  5 diabetes         No         272 0.824
##  6 diabetes         Yes         58 0.176
##  7 drug/alc         No         280 0.848
##  8 drug/alc         Yes         50 0.152
##  9 ice              No         315 0.955
## 10 ice              Yes         15 0.045
## # ℹ 16 more rows
…
